{
  "blocks": {
    "languageVersion": 0,
    "blocks": [
      {
        "type": "procedures_defreturn",
        "id": "R@/b@_zo~,u=mhh#uos|",
        "x": 197,
        "y": -228,
        "icons": {
          "comment": {
            "text": "Опишите эту функцию…",
            "pinned": false,
            "height": 80,
            "width": 160
          }
        },
        "fields": {
          "NAME": "main"
        },
        "inputs": {
          "STACK": {
            "block": {
              "type": "controls_if",
              "id": "jGnmRo31yH2xK`n3nF:7",
              "extraState": {
                "elseIfCount": 1,
                "hasElse": true
              },
              "inputs": {
                "IF0": {
                  "block": {
                    "type": "logic_compare",
                    "id": "L$^_tE^?,LqZCkf?-+55",
                    "fields": {
                      "OP": "LT"
                    },
                    "inputs": {
                      "A": {
                        "block": {
                          "type": "math_arithmetic",
                          "id": "%n3$v{%U,CX]Ok{7Q-_v",
                          "fields": {
                            "OP": "MINUS"
                          },
                          "inputs": {
                            "A": {
                              "shadow": {
                                "type": "math_number",
                                "id": "1IkRkX`zjXZFrMY|x~qn",
                                "fields": {
                                  "NUM": 1
                                }
                              }
                            },
                            "B": {
                              "shadow": {
                                "type": "math_number",
                                "id": "|qdCsD:gxYkX_yj|Y;yY",
                                "fields": {
                                  "NUM": 2
                                }
                              },
                              "block": {
                                "type": "math_number",
                                "id": "IPXRehpjAgC9y@$pl4?^",
                                "fields": {
                                  "NUM": 1
                                }
                              }
                            }
                          }
                        }
                      },
                      "B": {
                        "block": {
                          "type": "math_number",
                          "id": ":6%W.rNYXb$sUVX5eoxO",
                          "fields": {
                            "NUM": 2
                          }
                        }
                      }
                    }
                  }
                },
                "DO0": {
                  "block": {
                    "type": "procedures_callnoreturn",
                    "id": "RLBqX`xH,#PKuHFrp%Tg",
                    "extraState": {
                      "name": "new_function"
                    },
                    "next": {
                      "block": {
                        "type": "variables_set",
                        "id": "A0[TvZ[8(@.m@8~7+d%N",
                        "fields": {
                          "VAR": {
                            "id": "][3irZ-BXMod5EK`,~3}"
                          }
                        },
                        "inputs": {
                          "VALUE": {
                            "block": {
                              "type": "math_number",
                              "id": "6X`R6^hRP#.:^tFWtsz;",
                              "fields": {
                                "NUM": 123
                              }
                            }
                          }
                        }
                      }
                    }
                  }
                },
                "IF1": {
                  "block": {
                    "type": "sap_call_screen_prog",
                    "id": "xMRm-^~`+.Jc``E,6U26",
                    "extraState": "<mutation items=\"3\"></mutation>",
                    "fields": {
                      "NAME": "1",
                      "SCREEN": "2",
                      "VARIANT": "3",
                      "SELNAME0": "4",
                      "KIND0": "P",
                      "SIGN0": "E",
                      "OPTION0": "NE",
                      "SELNAME1": "6",
                      "KIND1": "S",
                      "SIGN1": "I",
                      "OPTION1": "EQ",
                      "SELNAME2": "7",
                      "KIND2": "P",
                      "SIGN2": "I",
                      "OPTION2": "EQ"
                    },
                    "inputs": {
                      "INI": {
                        "block": {
                          "type": "variables_set",
                          "id": "a~i{Q,@55Uv3hPD1tLsi",
                          "fields": {
                            "VAR": {
                              "id": "][3irZ-BXMod5EK`,~3}"
                            }
                          },
                          "inputs": {
                            "VALUE": {
                              "block": {
                                "type": "math_number",
                                "id": "Yu4L}gb5oWG4(8B~;]JK",
                                "fields": {
                                  "NUM": 234
                                }
                              }
                            }
                          }
                        }
                      }
                    }
                  }
                }
              }
            }
          },
          "RETURN": {
            "block": {
              "type": "variables_get",
              "id": "*P.CIYj*uhU;p_Dj1}(F",
              "fields": {
                "VAR": {
                  "id": "][3irZ-BXMod5EK`,~3}"
                }
              }
            }
          }
        }
      },
      {
        "type": "procedures_defnoreturn",
        "id": "U}x8]Q3H$6(yQlH$+q|Z",
        "x": 67,
        "y": 338,
        "icons": {
          "comment": {
            "text": "Опишите эту функцию…",
            "pinned": false,
            "height": 80,
            "width": 160
          }
        },
        "fields": {
          "NAME": "ShowMsg2"
        }
      },
      {
        "type": "procedures_defnoreturn",
        "id": "R[?)QJa{^|FF|FrILu9s",
        "x": 397,
        "y": 340,
        "icons": {
          "comment": {
            "text": "Опишите эту функцию…",
            "pinned": false,
            "height": 80,
            "width": 160
          }
        },
        "fields": {
          "NAME": "new_function"
        }
      },
      {
        "type": "procedures_defnoreturn",
        "id": ")mNCIWv1xa2!;hcMm^1b",
        "x": 377,
        "y": 443,
        "icons": {
          "comment": {
            "text": "Опишите эту функцию…",
            "pinned": false,
            "height": 80,
            "width": 160
          }
        },
        "fields": {
          "NAME": "new_function2"
        }
      }
    ]
  },
  "variables": [
    {
      "name": "item",
      "id": "][3irZ-BXMod5EK`,~3}"
    }
  ]
}